Trabajo Grupal R
…
Diagnósticamos la magnitud de los valores perdidos

miss_var_summary(bd_reactiva_pyto)

## # A tibble: 22 × 3
##    variable              n_miss pct_miss
##    <chr>                  <int>    <dbl>
##  1 ID                         1    0.190
##  2 CODIGOENTIDAD              1    0.190
##  3 UBIGEO                     1    0.190
##  4 COD_REGION                 1    0.190
##  5 COD_PROVINCIA              1    0.190
##  6 SNIP                       1    0.190
##  7 CUI                        1    0.190
##  8 TOTALEMPLEOS               1    0.190
##  9 POBLACIONBENEFICIARIA      1    0.190
## 10 CODIGOPAIS                 0    0    
## # … with 12 more rows

miss_case_summary(bd_reactiva_pyto)

## # A tibble: 526 × 3
##     case n_miss pct_miss
##    <int>  <int>    <dbl>
##  1   526      9     40.9
##  2     1      0      0  
##  3     2      0      0  
##  4     3      0      0  
##  5     4      0      0  
##  6     5      0      0  
##  7     6      0      0  
##  8     7      0      0  
##  9     8      0      0  
## 10     9      0      0  
## # … with 516 more rows
…
