Trabajo Grupal R
…
A partir de una primera mirada regional, se puede observar que casi
todos los departamentos, a excepción de Madre de Dios, recibieron
recursos para la ejecución de proyectos de inversión pública en sus
respectivas jurisdicciones. Asimismo, Ayacucho fue la región con más
recursos recibidos (más de S/100 millones), seguida de Junín (más de
S/91 millones) y Puno (más de S/84 millones). Moquegua fue la región que
menos recibió, apenas un millón.

library(mapsPERU)
df <- map_REG
df

## # A tibble: 26 × 5
##    COD_REGION REGION       coords_x coords_y                            geometry
##    <chr>      <chr>           <dbl>    <dbl>                  <MULTIPOLYGON [°]>
##  1 010000     Amazonas        -78.1    -5.07 (((-77.59734 -6.032264, -77.59581 …
##  2 020000     Áncash          -77.7    -9.41 (((-78.17101 -8.500004, -78.18356 …
##  3 030000     Apurímac        -73.0   -14.0  (((-72.3994 -13.64069, -72.39879 -…
##  4 040000     Arequipa        -72.5   -15.8  (((-74.84317 -15.56497, -74.82033 …
##  5 050000     Ayacucho        -74.1   -14.1  (((-74.34595 -12.17374, -74.34618 …
##  6 060000     Cajamarca       -78.7    -6.43 (((-79.29619 -7.129617, -79.30373 …
##  7 070000     Callao          -77.1   -11.9  (((-77.15692 -12.06896, -77.15325 …
##  8 080000     Cusco           -72.2   -13.2  (((-71.51004 -15.00353, -71.50725 …
##  9 090000     Huancavelica    -75.0   -13.0  (((-74.28611 -12.77462, -74.29302 …
## 10 100000     Huánuco         -76.0    -9.42 (((-76.911 -9.368459, -76.91706 -9…
## # … with 16 more rows
…
