Trabajo Grupal R
…
Diagnósticamos la magnitud de los valores perdidos

miss_var_summary(bd_reactiva_pyto)

## # A tibble: 22 × 3
##    variable              n_miss pct_miss
##    <chr>                  <int>    <dbl>
##  1 ID                         1    0.190
##  2 CODIGOENTIDAD              1    0.190
##  3 UBIGEO                     1    0.190
##  4 COD_REGION                 1    0.190
##  5 COD_PROVINCIA              1    0.190
##  6 SNIP                       1    0.190
##  7 CUI                        1    0.190
##  8 TOTALEMPLEOS               1    0.190
##  9 POBLACIONBENEFICIARIA      1    0.190
## 10 CODIGOPAIS                 0    0    
## # … with 12 more rows

miss_case_summary(bd_reactiva_pyto)

## # A tibble: 526 × 3
##     case n_miss pct_miss
##    <int>  <int>    <dbl>
##  1   526      9     40.9
##  2     1      0      0  
##  3     2      0      0  
##  4     3      0      0  
##  5     4      0      0  
##  6     5      0      0  
##  7     6      0      0  
##  8     7      0      0  
##  9     8      0      0  
## 10     9      0      0  
## # … with 516 more rows
…
## [1] "numeric"

class(bd_reactiva_pyto$MONTODEINVERSIÓN)

## [1] "numeric"

bd_reactiva_pyto <-bd_reactiva_pyto %>% 
  mutate(COD_REGION = sprintf("%06d", COD_REGION),
         COD_PROVINCIA = sprintf("%06d", COD_PROVINCIA))

library(mapsPERU)
df <- map_REG
df

## # A tibble: 26 × 5
##    COD_REGION REGION       coords_x coords_y                            geometry
##    <chr>      <chr>           <dbl>    <dbl>                  <MULTIPOLYGON [°]>
##  1 010000     Amazonas        -78.1    -5.07 (((-77.59734 -6.032264, -77.59581 …
##  2 020000     Áncash          -77.7    -9.41 (((-78.17101 -8.500004, -78.18356 …
##  3 030000     Apurímac        -73.0   -14.0  (((-72.3994 -13.64069, -72.39879 -…
##  4 040000     Arequipa        -72.5   -15.8  (((-74.84317 -15.56497, -74.82033 …
##  5 050000     Ayacucho        -74.1   -14.1  (((-74.34595 -12.17374, -74.34618 …
##  6 060000     Cajamarca       -78.7    -6.43 (((-79.29619 -7.129617, -79.30373 …
##  7 070000     Callao          -77.1   -11.9  (((-77.15692 -12.06896, -77.15325 …
##  8 080000     Cusco           -72.2   -13.2  (((-71.51004 -15.00353, -71.50725 …
##  9 090000     Huancavelica    -75.0   -13.0  (((-74.28611 -12.77462, -74.29302 …
## 10 100000     Huánuco         -76.0    -9.42 (((-76.911 -9.368459, -76.91706 -9…
## # … with 16 more rows
…
## # A tibble: 8 × 3
##   variable                 n_miss pct_miss
##   <chr>                     <int>    <dbl>
## 1 TOTALEMPLEOS                  1    0.190
## 2 MONTODEINVERSIÓN              1    0.190
## 3 MONTODETRANSFERENCIA2020      1    0.190
## 4 COD_REGION                    0    0    
## 5 COD_PROVINCIA                 0    0    
## 6 REGION                        0    0    
## 7 PROVINCIA                     0    0    
## 8 DISTRITO                      0    0

miss_case_summary(emp_mont) # Observamos que los 05 valores perdidos se concentran en la fila 526.

## # A tibble: 526 × 3
##     case n_miss pct_miss
##    <int>  <int>    <dbl>
##  1   526      3     37.5
##  2     1      0      0  
##  3     2      0      0  
##  4     3      0      0  
##  5     4      0      0  
##  6     5      0      0  
##  7     6      0      0  
##  8     7      0      0  
##  9     8      0      0  
## 10     9      0      0  
## # … with 516 more rows
…
